<svg xmlns="http://www.w3.org/2000/svg" width="75" height="24" viewBox="0 0 75 24">
  <g fill="#A4A4A4" fill-rule="evenodd">
    <path d="M49.6673734 6C50.2904031 6.70986952 51.6543429 6.67919843 52.465464 7.19986795 51.3705429 7.48108123 49.9921914 7.47997263 49 7.86502419 49.2339133 7.25381951 49.4434375 6.62007343 49.6673734 6M42.0601122 8C41.7323379 9.49512341 41.0461184 11.2060531 40.6614364 12.8641398 42.77922 12.8940718 45.0130363 12.4624593 47.1906839 12.3312757 47.4855699 11.9373554 47.6300566 11.3937749 47.7911722 10.8657148 48.2275886 11.483571 48.5350386 12.6402038 48.1244894 13.5304046 44.8171848 13.4842132 42.4396207 16.1925077 39.1955059 16.1954639 37.7425091 16.1973116 36.5075357 15.3614319 37.1959724 13.730321 38.16747 11.4285109 40.5764442 9.82104997 42.0601122 8"/>
    <path d="M51.7188186,3.22945652 C50.8729616,3.33181668 50.2724733,4.25638385 49.7200241,4.56198619 C49.7599335,4.55829088 49.7979952,4.55163931 49.7850616,4.49510103 C49.8866827,4.04020807 50.079578,3.67806745 50.1187483,3.1629409 C45.6843734,1.60130186 41.368618,3.88463542 38.1921274,5.6277143 C35.6519697,7.02158615 33.385265,8.65860956 31.7948025,10.2919377 C32.3697932,9.31231033 32.9798892,8.34302988 33.6609353,7.42733146 C34.3508502,6.49759085 35.1198447,5.65690727 35.727354,4.82878775 C34.3988892,4.48105885 33.0670986,4.11374479 31.7275479,3.8288362 C29.8233534,3.42382996 27.1749229,2.75202216 25.5977636,3.6289198 C25.141023,3.88241823 24.7677964,4.50618697 24.3317495,4.56198619 C23.9707175,4.60891666 23.3765113,4.34507135 22.9319652,4.29592369 C21.303441,4.11485338 19.8057309,4.26599166 18.3342575,4.56198619 C16.9562754,4.83802603 14.0421521,5.32839399 13.6689255,6.62692678 C13.4298388,7.4609588 13.9627028,8.26949316 13.8692114,9.09391737 C13.7779372,9.90540798 12.9989654,10.9785267 12.6031974,11.6259455 C12.1187419,12.4189595 11.6261568,13.1218079 10.8035802,13.4906001 C10.3047131,11.0084587 10.8475544,8.80050956 11.2706677,6.69492053 C11.5315568,5.39749633 12.0577693,4.06940104 11.6043544,2.76273856 C10.333906,2.58647216 9.26374354,3.59196667 8.00548965,4.0948987 C5.64196781,5.04089868 3.00942723,5.90264554 2.67500146,8.62646034 C2.48654052,10.1603845 3.06337879,11.135947 3.47466707,12.2253251 C4.35636862,14.5655665 5.44648579,16.5466235 6.74021467,18.3558485 C6.38768186,19.0036367 5.55697563,19.1725125 5.47309204,20.0867328 C5.84927484,20.6192273 6.63231155,20.6890687 7.40610997,20.6872211 C9.64214353,20.6820476 11.475388,19.5571945 13.1360614,18.6211719 C16.7522942,16.5872719 19.1819621,13.4547556 21.7328363,10.4922236 C22.1807082,9.97118454 22.5495004,9.34372049 23.1329902,9.02666268 C23.7061331,11.6588337 22.5912574,13.0660087 21.7986129,15.2229626 C21.4933801,16.0540383 20.5296426,18.6544297 20.9993168,19.8860773 C21.5140738,21.241518 25.9004097,21.300643 27.0633245,20.4215281 C27.6494011,19.9788297 27.8825753,18.9777696 28.1974159,18.3558485 C28.5987268,17.5554438 28.9460862,16.8640508 29.2627745,16.156768 C29.280512,19.0760649 31.4489213,19.9330078 33.793597,20.5545594 C38.7770954,21.8719383 43.8019813,19.5183938 46.5206226,17.8902391 C46.1806539,20.0527359 47.0205984,20.2696508 48.7200726,20.6221836 C53.1141686,21.5290133 57.5396748,20.4821312 61.1141505,19.6211234 C64.3907841,18.8321742 67.0259114,18.2749211 67.5114754,15.0230462 C66.986741,14.5692618 65.6763833,14.6258001 64.7795309,14.7573532 C62.137013,15.1438829 59.5780091,16.4804774 56.0504639,16.2229141 C55.4067404,16.1759837 54.0165639,15.9513087 53.9164209,15.5573884 C53.7615873,14.9421188 54.8627905,14.5116149 55.7847709,14.3578899 C58.428767,13.9100181 62.2508286,14.3619548 64.3789591,13.5567462 C65.401452,13.1709556 66.6342082,12.0579275 66.5104153,10.8251712 C66.4298575,9.99298688 65.3426965,9.55730955 64.3117044,9.49375017 C61.3961029,9.31157127 59.3119466,11.0132626 56.2514889,10.4260775 C56.6339537,9.9423611 56.7026865,9.1463908 57.1830771,8.76023065 C59.4209584,8.71330019 61.5956497,9.1582158 63.7134333,9.02666268 C66.6582278,8.84226659 68.3185316,7.60248927 69.7109254,5.96140101 C69.860216,5.78476508 70.2338121,5.59445649 70.1107582,5.29587524 C64.9960762,4.51764244 58.0241302,2.45676669 51.7188186,3.22945652 M74.9065347,3.49625808 C74.9878315,3.81775026 74.6290167,4.12667838 74.4420339,4.36280885 C72.8737433,6.33314944 71.1347293,8.663783 69.0450301,10.1596455 C69.1957988,10.9437908 69.1156105,11.9836517 68.843266,12.5575337 C69.3905418,13.2570564 69.9710754,13.9192564 70.309566,14.8242384 C69.8646504,17.1877602 68.8303324,19.0228524 67.1788973,20.2216117 C65.5655239,21.390439 63.3856591,21.850875 60.913495,22.4206922 C56.1332389,23.5222648 48.2673968,24.6090562 44.7210055,21.7533187 C40.8812063,24.0059812 33.1203111,24.3034538 29.528837,21.6199179 C26.9753761,24.8510991 16.903802,24.5680382 18.4018817,18.1555625 C16.5346403,19.5693891 13.7727638,21.5194054 11.1376365,22.620239 C8.08235215,23.8951218 2.29549287,23.7521132 2.8741788,19.4215766 C2.94365067,18.9060805 3.1616741,18.6145203 3.40741238,18.1555625 C2.51388583,16.5954016 1.94887256,15.5134141 1.40861788,14.1568649 C0.890535078,12.8564845 0.100107747,11.3768814 0.00883352939,9.55989627 C-0.184431311,5.69644711 2.82650927,3.24645496 5.80714828,2.09647373 C7.32924747,1.50817999 8.56532949,0.65899719 10.0719084,0.231080009 C12.3234622,-0.41042623 14.254263,0.8282425 14.402445,2.89650887 C17.0205739,2.11938467 20.2085199,1.26207218 23.6654847,1.76352608 C26.4181229,-0.376798887 31.793694,0.945753435 35.3271517,1.96270342 C36.1257087,2.19292138 37.2010446,2.78823622 37.7922946,2.76273856 C38.293379,2.74241434 39.198361,2.06284639 39.7234649,1.8300417 C42.20265,0.731055783 45.443439,-0.438880136 48.9865046,0.164564385 C49.6572038,0.278010477 50.2713647,0.633130003 50.9849296,0.697428439 C51.4701241,0.741033126 52.0624827,0.589155785 52.5849999,0.564766723 C60.8643474,0.160499542 67.7579527,2.38286044 74.9065347,3.49625808"/>
  </g>
</svg>
